{
    "name": "pf2qr_maestro",
    "title": "Pathfinder 2e Quick Rolls for maestro",
    "description": "Adds a readout after attacks featuring success/failure, and a button to place templates for spells.",
    "author": "Darth_Apples, Liquid-Sonic, Mortaneus, Zarincos",
    "version": "2.1.12",
    "minimumCoreVersion": "0.8.6",
    "compatibleCoreVersion": "0.8.8",  
    "esmodules": [ 
        "pf2qr-main.js"
    ],
    "socket" : true,
    "systems": ["pf2e"],
    "url":"https://gitlab.com/jdevore/pf2qr",
    "manifest":"https://gitlab.com/jdevore/pf2qr/-/raw/master/module.json",
    "download":"https://gitlab.com/jdevore/pf2qr/-/archive/master/pf2qr-master.zip"
  }
